{
    "development": {
        "username": "{{MYSQL_USERNAME}}",
        "password": "{{MYSQL_PASSWORD}}",
        "database": "{{MYSQL_DB_NAME}}",
        "host": "{{MYSQL_DB_HOST}}",
        "dialect": "mysql",
        "pool": {
            "maxIdleTime": 600000,
            "maxConnections": 10,
            "minConnections": 2
        }
}
}
