{
    "datasource": {
        "mongodb": {
            "dbURL": "{{ MONGODB_HOST }}",
            "databaseName": "{{ MONGODB_DB_NAME }}",
            "port": "{{ MONGODB_PORT }}",
            "username": "{{ VAULT_MONGODB_USERNAME }}",
            "password": "{{ VAULT_MONGODB_PASSWORD }}"
        },
        "mysql": {
            "dialect": "mysql",
            "databaseName": "{{ MYSQL_DB_NAME }}",
            "port": "{{ MYSQL_PORT }}",
            "username": "{{ VAULT_MYSQL_USERNAME }}",
            "password": "{{ VAULT_MYSQL_PASSWORD }}"
        },
        "redis": {
            "host": "{{ REDIS_HOST }}",
            "port": "{{ REDIS_PORT }}",
            "username": "{{ VAULT_REDIS_USERNAME }}",
            "password": "{{ VAULT_REDIS_PASSWORD }}"
        },
        "elastic":{
            "ip_address":"{{ ELASTIC_HOST }}",
            "port": "{{ ELASTIC_PORT }}",
            "username": "{{ VAULT_ELASTIC_USERNAME }}",
            "password": "{{ VAULT_ELASTIC_PASSWORD }}"
        },
        "statsd": {
          "host": "{{ STATSD_HOST }}",
          "port": "{{ STATSD_PORT }}"
      }
    },
    "kafkaSettings": {
        "producer": {
            "zkOptions": {
                "sessionTimeout": 2000,
                "spinDelay": 500,
                "retries": 3
            },
            "connectionString": "{{KAFKA_HOST}}:{{KAFKA_PORT}}",
            "clientId": "kafka-node-client",
            "producerOptions": {
                "requireAcks": 1,
                "ackTimeoutMs": 100,
                "partitionerType": 2
            }
        },
        "consumer": {
            "worker": {
                "host": "172.31.1.195:2181",
                "kafkaHost": "172.31.1.195:9092",
                "zk": "undefined",
                "batch": "undefined",
                "ssl": false,
                "groupId": "NotificationGroup",
                "sessionTimeout": 15000,
                "protocol": ["roundrobin"],
                "fromOffset": "latest",
                "autoCommit": true,
                "autoCommitIntervalMs": 5000,
                "fetchMaxWaitMs": 100,
                "outOfRangeOffset": "earliest"
            }
        }
    },
    "s3Config": {
        "awsAccessKey": "{{VAULT_AWSACCESS_KEY}}",
        "awsSecretKey": "{{VAULT_AWSSECRET_KEY}}",
        "region": "eu-central-1",
        "customer_acl": "public-read",
        "customer_bucket_name": "rubique-customers"
    },
 "tokenConfig": {
       "access_token": "199ea570-803c-11e7-91d9-1f62cc1a2851"
   },
    "legacyApiConfig": {
        "baseUri": "https://api.rubique.com/",
        "phpbaseUri": "https://mapi.rubique.com/",
        "apiVersion": "/demo/",
        "uiMandatoryVersion": 1.0,
        "uiCurrentVersion": 1.0,
        "webUri": "https://beta.rubique.com/",
        "baseNodeUri": "https://api.rubique.com/"
    },
    "externalApi": {
        "whiteList": ["9004592583", "8097272928", "7760246115","9028275334", "8839471422", "7888614105", "9407872931"],
        "smsApi": {
            "url": "{{VAULT_API_SMS_HOST}}",
            "user": "{{VAULT_API_SMS_USERNAME}}:{{VAULT_API_SMS_PASSWORD}}",
            "senderID": "{{VAULT_API_SMS_SENDER_ID}}"
        },
        "ses": {
            "active": false,
            "awsAccessKey": "AKIAJXT2TXG42NETWOQA",
            "awsSecretKey": "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",
            "region": "us-east-1",
            "from": "no-reply@rubique.com"
        },
        "smtpEmail": {
            "active": true,
            "host": "{{ API_SMTP_EMAIL_HOST }}",
            "port": "{{ API_SMTP_EMAIL_PORT}}",
            "auth": {
                "user": "{{ VAULT_API_SMTP_EMAIL_USERNAME }}",
                "pass": "{{ VAULT_API_SMTP_EMAIL_PASSWORD }}"
            },
            "debug": true
        },
        "chatBotApi": {
            "uri": "https://watson-api-explorer.mybluemix.net/conversation/api/v1/workspaces/",
            "workspaceId": "0025edd6-19ca-4723-9125-cc79b89dd2cb",
            "Authentication": {
                "type": "Basic",
                "username": "077c703b-6c0b-44e2-8b6b-8b8b79493601",
                "password": "JoSDWJDL6bTu"
            }
        },
        "algo360Api": {
            "uri": "http://api.algo360.com/",
            "Authentication": {
                "client_id": "{{ VAULT_API_ALGO_360_CLIENT_ID }}",
                "client_secret": "{{ VAULT_API_ALGO_360_CLIENT_SECRET }}"
            }
        },
        "perfiosAadhaarApi": {
            "organisation": "rubique",
            "baseUri": "https://ekyc.perfios.com/KYCServer/kyc/api/{0}/aadhaar/{1}/{2}",
            "zipDecryptionPassword": "{{ VAULT_API_PERFIOUS_AADHAR_DEC_PASSWORD }}",
            "serverAddress": "https://api.rubique.com/demo"
        },
        "AuthBridge": {
            "username": "{{ VAULT_API_AUTHBRIDGE_USERNAME }}",
            "password": "{{ VAULT_API_AUTHBRIDGE_PASSWORD }}",
            "instantVerification": {
                "loginUrl": "{{ API_AUTHBRIDGE_LOGIN_URL }}",
                "searchUrl": "{{ API_AUTHBRIDGE_LOGIN_URL }}",
                "utilitySearchUrl": "{{ API_AUTHBRIDGE_UTILITY_SEARCH_URL }}"
            }
        },
        "starInsurance": {
            "APIKEY": "{{ VAULT_API_STAR_INSURANCE_KEY }}",
            "SECRETKEY": "{{ VAULT_API_STAR_INSURANCE_SECRET_KEY }}"
        }

    }
}
