{
    "demo": {
        "username": "{{VAULT_MYSQL_USERNAME}}",
        "password": "{{VAULT_MYSQL_PASSWORD}}",
        "database": "{{MYSQL_DB_NAME}}",
        "host": "{{MYSQL_DB_HOST}}",
        "dialect": "mysql",
        "retry": {
            "match": "ER_LOCK_DEADLOCK: Deadlock found when trying to get lock; try restarting transaction",
            "max": 3 
        },
        "pool": {
            "maxIdleTime": 600000,
            "maxConnections": 10,
            "minConnections": 2
        }
}
}
